<mxfile host="app.diagrams.net" modified="2023-12-09T18:30:45.853Z" agent="Mozilla/5.0 (Windows NT 10.0; Win64; x64) AppleWebKit/537.36 (KHTML, like Gecko) Chrome/118.0.0.0 Safari/537.36 OPR/104.0.0.0" etag="AtzhRKvrpDORjRlngkZZ" version="22.1.7" type="google">
  <diagram name="Página-1" id="TP9E6z4Yoxkd434WqClj">
    <mxGraphModel grid="1" page="1" gridSize="10" guides="1" tooltips="1" connect="1" arrows="1" fold="1" pageScale="1" pageWidth="827" pageHeight="1169" math="0" shadow="0">
      <root>
        <mxCell id="0" />
        <mxCell id="1" parent="0" />
        <mxCell id="-Q95M-S0IUvqRcSwskgD-1" value="ens" style="swimlane;fontStyle=0;childLayout=stackLayout;horizontal=1;startSize=30;horizontalStack=0;resizeParent=1;resizeParentMax=0;resizeLast=0;collapsible=1;marginBottom=0;whiteSpace=wrap;html=1;" vertex="1" parent="1">
          <mxGeometry x="80" y="520" width="140" height="90" as="geometry" />
        </mxCell>
        <mxCell id="-Q95M-S0IUvqRcSwskgD-2" value="&lt;u&gt;id_ens&lt;/u&gt;" style="text;strokeColor=none;fillColor=none;align=left;verticalAlign=middle;spacingLeft=4;spacingRight=4;overflow=hidden;points=[[0,0.5],[1,0.5]];portConstraint=eastwest;rotatable=0;whiteSpace=wrap;html=1;" vertex="1" parent="-Q95M-S0IUvqRcSwskgD-1">
          <mxGeometry y="30" width="140" height="30" as="geometry" />
        </mxCell>
        <mxCell id="-Q95M-S0IUvqRcSwskgD-3" value="nom" style="text;strokeColor=none;fillColor=none;align=left;verticalAlign=middle;spacingLeft=4;spacingRight=4;overflow=hidden;points=[[0,0.5],[1,0.5]];portConstraint=eastwest;rotatable=0;whiteSpace=wrap;html=1;" vertex="1" parent="-Q95M-S0IUvqRcSwskgD-1">
          <mxGeometry y="60" width="140" height="30" as="geometry" />
        </mxCell>
        <mxCell id="-Q95M-S0IUvqRcSwskgD-5" value="és" style="triangle;whiteSpace=wrap;html=1;rotation=90;" vertex="1" parent="1">
          <mxGeometry x="130" y="670" width="40" height="50" as="geometry" />
        </mxCell>
        <mxCell id="-Q95M-S0IUvqRcSwskgD-6" value="" style="endArrow=none;html=1;rounded=0;exitX=0;exitY=0.5;exitDx=0;exitDy=0;entryX=0.508;entryY=1.062;entryDx=0;entryDy=0;entryPerimeter=0;" edge="1" parent="1" source="-Q95M-S0IUvqRcSwskgD-5" target="-Q95M-S0IUvqRcSwskgD-3">
          <mxGeometry width="50" height="50" relative="1" as="geometry">
            <mxPoint x="150" y="670" as="sourcePoint" />
            <mxPoint x="200" y="620" as="targetPoint" />
          </mxGeometry>
        </mxCell>
        <mxCell id="-Q95M-S0IUvqRcSwskgD-11" value="public" style="swimlane;fontStyle=0;childLayout=stackLayout;horizontal=1;startSize=30;horizontalStack=0;resizeParent=1;resizeParentMax=0;resizeLast=0;collapsible=1;marginBottom=0;whiteSpace=wrap;html=1;" vertex="1" parent="1">
          <mxGeometry x="-10" y="740" width="140" height="60" as="geometry" />
        </mxCell>
        <mxCell id="-Q95M-S0IUvqRcSwskgD-15" value="privat" style="swimlane;fontStyle=0;childLayout=stackLayout;horizontal=1;startSize=30;horizontalStack=0;resizeParent=1;resizeParentMax=0;resizeLast=0;collapsible=1;marginBottom=0;whiteSpace=wrap;html=1;" vertex="1" parent="1">
          <mxGeometry x="180" y="740" width="140" height="60" as="geometry" />
        </mxCell>
        <mxCell id="-Q95M-S0IUvqRcSwskgD-16" value="" style="endArrow=none;html=1;rounded=0;exitX=0.791;exitY=-0.012;exitDx=0;exitDy=0;exitPerimeter=0;entryX=0.5;entryY=1;entryDx=0;entryDy=0;" edge="1" parent="1" source="-Q95M-S0IUvqRcSwskgD-11" target="-Q95M-S0IUvqRcSwskgD-5">
          <mxGeometry width="50" height="50" relative="1" as="geometry">
            <mxPoint x="100" y="730" as="sourcePoint" />
            <mxPoint x="100" y="690" as="targetPoint" />
          </mxGeometry>
        </mxCell>
        <mxCell id="-Q95M-S0IUvqRcSwskgD-17" value="" style="endArrow=none;html=1;rounded=0;exitX=0.128;exitY=-0.012;exitDx=0;exitDy=0;exitPerimeter=0;entryX=0.5;entryY=0;entryDx=0;entryDy=0;" edge="1" parent="1" source="-Q95M-S0IUvqRcSwskgD-15" target="-Q95M-S0IUvqRcSwskgD-5">
          <mxGeometry width="50" height="50" relative="1" as="geometry">
            <mxPoint x="200" y="725" as="sourcePoint" />
            <mxPoint x="198" y="690" as="targetPoint" />
          </mxGeometry>
        </mxCell>
        <mxCell id="-Q95M-S0IUvqRcSwskgD-19" value="E" style="rhombus;whiteSpace=wrap;html=1;" vertex="1" parent="1">
          <mxGeometry x="290" y="535" width="50" height="50" as="geometry" />
        </mxCell>
        <mxCell id="-Q95M-S0IUvqRcSwskgD-20" value="canal" style="swimlane;fontStyle=0;childLayout=stackLayout;horizontal=1;startSize=30;horizontalStack=0;resizeParent=1;resizeParentMax=0;resizeLast=0;collapsible=1;marginBottom=0;whiteSpace=wrap;html=1;" vertex="1" parent="1">
          <mxGeometry x="413" y="520" width="140" height="120" as="geometry" />
        </mxCell>
        <mxCell id="-Q95M-S0IUvqRcSwskgD-21" value="&lt;u&gt;id_canal&lt;/u&gt;" style="text;strokeColor=none;fillColor=none;align=left;verticalAlign=middle;spacingLeft=4;spacingRight=4;overflow=hidden;points=[[0,0.5],[1,0.5]];portConstraint=eastwest;rotatable=0;whiteSpace=wrap;html=1;" vertex="1" parent="-Q95M-S0IUvqRcSwskgD-20">
          <mxGeometry y="30" width="140" height="30" as="geometry" />
        </mxCell>
        <mxCell id="-Q95M-S0IUvqRcSwskgD-22" value="nom" style="text;strokeColor=none;fillColor=none;align=left;verticalAlign=middle;spacingLeft=4;spacingRight=4;overflow=hidden;points=[[0,0.5],[1,0.5]];portConstraint=eastwest;rotatable=0;whiteSpace=wrap;html=1;" vertex="1" parent="-Q95M-S0IUvqRcSwskgD-20">
          <mxGeometry y="60" width="140" height="30" as="geometry" />
        </mxCell>
        <mxCell id="-Q95M-S0IUvqRcSwskgD-23" value="descripcio" style="text;strokeColor=none;fillColor=none;align=left;verticalAlign=middle;spacingLeft=4;spacingRight=4;overflow=hidden;points=[[0,0.5],[1,0.5]];portConstraint=eastwest;rotatable=0;whiteSpace=wrap;html=1;" vertex="1" parent="-Q95M-S0IUvqRcSwskgD-20">
          <mxGeometry y="90" width="140" height="30" as="geometry" />
        </mxCell>
        <mxCell id="-Q95M-S0IUvqRcSwskgD-24" value="" style="endArrow=none;html=1;rounded=0;exitX=1;exitY=0.5;exitDx=0;exitDy=0;entryX=-0.005;entryY=0.338;entryDx=0;entryDy=0;entryPerimeter=0;" edge="1" parent="1" source="-Q95M-S0IUvqRcSwskgD-19" target="-Q95M-S0IUvqRcSwskgD-21">
          <mxGeometry width="50" height="50" relative="1" as="geometry">
            <mxPoint x="350" y="550" as="sourcePoint" />
            <mxPoint x="400" y="500" as="targetPoint" />
          </mxGeometry>
        </mxCell>
        <mxCell id="-Q95M-S0IUvqRcSwskgD-25" value="" style="endArrow=none;html=1;rounded=0;entryX=0;entryY=0.5;entryDx=0;entryDy=0;exitX=1;exitY=0.338;exitDx=0;exitDy=0;exitPerimeter=0;" edge="1" parent="1" source="-Q95M-S0IUvqRcSwskgD-2" target="-Q95M-S0IUvqRcSwskgD-19">
          <mxGeometry width="50" height="50" relative="1" as="geometry">
            <mxPoint x="230" y="630" as="sourcePoint" />
            <mxPoint x="280" y="580" as="targetPoint" />
          </mxGeometry>
        </mxCell>
        <mxCell id="-Q95M-S0IUvqRcSwskgD-27" value="Emissio" style="rhombus;whiteSpace=wrap;html=1;" vertex="1" parent="1">
          <mxGeometry x="680" y="535" width="50" height="50" as="geometry" />
        </mxCell>
        <mxCell id="-Q95M-S0IUvqRcSwskgD-28" value="franja" style="swimlane;fontStyle=0;childLayout=stackLayout;horizontal=1;startSize=30;horizontalStack=0;resizeParent=1;resizeParentMax=0;resizeLast=0;collapsible=1;marginBottom=0;whiteSpace=wrap;html=1;" vertex="1" parent="1">
          <mxGeometry x="635" y="290" width="140" height="150" as="geometry" />
        </mxCell>
        <mxCell id="-Q95M-S0IUvqRcSwskgD-29" value="&lt;u&gt;id_franja&lt;/u&gt;" style="text;strokeColor=none;fillColor=none;align=left;verticalAlign=middle;spacingLeft=4;spacingRight=4;overflow=hidden;points=[[0,0.5],[1,0.5]];portConstraint=eastwest;rotatable=0;whiteSpace=wrap;html=1;" vertex="1" parent="-Q95M-S0IUvqRcSwskgD-28">
          <mxGeometry y="30" width="140" height="30" as="geometry" />
        </mxCell>
        <mxCell id="-Q95M-S0IUvqRcSwskgD-30" value="franja" style="text;strokeColor=none;fillColor=none;align=left;verticalAlign=middle;spacingLeft=4;spacingRight=4;overflow=hidden;points=[[0,0.5],[1,0.5]];portConstraint=eastwest;rotatable=0;whiteSpace=wrap;html=1;" vertex="1" parent="-Q95M-S0IUvqRcSwskgD-28">
          <mxGeometry y="60" width="140" height="30" as="geometry" />
        </mxCell>
        <mxCell id="-Q95M-S0IUvqRcSwskgD-31" value="hora_inici" style="text;strokeColor=none;fillColor=none;align=left;verticalAlign=middle;spacingLeft=4;spacingRight=4;overflow=hidden;points=[[0,0.5],[1,0.5]];portConstraint=eastwest;rotatable=0;whiteSpace=wrap;html=1;" vertex="1" parent="-Q95M-S0IUvqRcSwskgD-28">
          <mxGeometry y="90" width="140" height="30" as="geometry" />
        </mxCell>
        <mxCell id="-Q95M-S0IUvqRcSwskgD-32" value="hora_fi" style="text;strokeColor=none;fillColor=none;align=left;verticalAlign=middle;spacingLeft=4;spacingRight=4;overflow=hidden;points=[[0,0.5],[1,0.5]];portConstraint=eastwest;rotatable=0;whiteSpace=wrap;html=1;" vertex="1" parent="-Q95M-S0IUvqRcSwskgD-28">
          <mxGeometry y="120" width="140" height="30" as="geometry" />
        </mxCell>
        <mxCell id="-Q95M-S0IUvqRcSwskgD-33" value="spot" style="swimlane;fontStyle=0;childLayout=stackLayout;horizontal=1;startSize=30;horizontalStack=0;resizeParent=1;resizeParentMax=0;resizeLast=0;collapsible=1;marginBottom=0;whiteSpace=wrap;html=1;" vertex="1" parent="1">
          <mxGeometry x="840" y="520" width="140" height="90" as="geometry" />
        </mxCell>
        <mxCell id="-Q95M-S0IUvqRcSwskgD-34" value="&lt;u&gt;id_spot&lt;/u&gt;" style="text;strokeColor=none;fillColor=none;align=left;verticalAlign=middle;spacingLeft=4;spacingRight=4;overflow=hidden;points=[[0,0.5],[1,0.5]];portConstraint=eastwest;rotatable=0;whiteSpace=wrap;html=1;" vertex="1" parent="-Q95M-S0IUvqRcSwskgD-33">
          <mxGeometry y="30" width="140" height="30" as="geometry" />
        </mxCell>
        <mxCell id="-Q95M-S0IUvqRcSwskgD-35" value="idioma" style="text;strokeColor=none;fillColor=none;align=left;verticalAlign=middle;spacingLeft=4;spacingRight=4;overflow=hidden;points=[[0,0.5],[1,0.5]];portConstraint=eastwest;rotatable=0;whiteSpace=wrap;html=1;" vertex="1" parent="-Q95M-S0IUvqRcSwskgD-33">
          <mxGeometry y="60" width="140" height="30" as="geometry" />
        </mxCell>
        <mxCell id="-Q95M-S0IUvqRcSwskgD-37" value="1:N" style="text;html=1;strokeColor=none;fillColor=none;align=center;verticalAlign=middle;whiteSpace=wrap;rounded=0;" vertex="1" parent="1">
          <mxGeometry x="285" y="505" width="60" height="30" as="geometry" />
        </mxCell>
        <mxCell id="-Q95M-S0IUvqRcSwskgD-38" value="(1,n)&lt;br&gt;&lt;br&gt;té" style="text;html=1;strokeColor=none;fillColor=none;align=center;verticalAlign=middle;whiteSpace=wrap;rounded=0;" vertex="1" parent="1">
          <mxGeometry x="340" y="545" width="60" height="30" as="geometry" />
        </mxCell>
        <mxCell id="-Q95M-S0IUvqRcSwskgD-40" value="(1,1)&lt;br&gt;&lt;br&gt;pertany" style="text;html=1;strokeColor=none;fillColor=none;align=center;verticalAlign=middle;whiteSpace=wrap;rounded=0;" vertex="1" parent="1">
          <mxGeometry x="225" y="545" width="60" height="30" as="geometry" />
        </mxCell>
        <mxCell id="-Q95M-S0IUvqRcSwskgD-42" value="(0,1)" style="text;html=1;strokeColor=none;fillColor=none;align=center;verticalAlign=middle;whiteSpace=wrap;rounded=0;" vertex="1" parent="1">
          <mxGeometry x="165" y="690" width="60" height="30" as="geometry" />
        </mxCell>
        <mxCell id="-Q95M-S0IUvqRcSwskgD-43" value="(0,1)" style="text;html=1;strokeColor=none;fillColor=none;align=center;verticalAlign=middle;whiteSpace=wrap;rounded=0;" vertex="1" parent="1">
          <mxGeometry x="70" y="690" width="60" height="30" as="geometry" />
        </mxCell>
        <mxCell id="-Q95M-S0IUvqRcSwskgD-44" value="(0,0)" style="text;html=1;strokeColor=none;fillColor=none;align=center;verticalAlign=middle;whiteSpace=wrap;rounded=0;" vertex="1" parent="1">
          <mxGeometry x="140" y="630" width="60" height="30" as="geometry" />
        </mxCell>
        <mxCell id="-Q95M-S0IUvqRcSwskgD-45" value="" style="endArrow=none;html=1;rounded=0;entryX=0;entryY=0.5;entryDx=0;entryDy=0;exitX=1;exitY=0.338;exitDx=0;exitDy=0;exitPerimeter=0;" edge="1" parent="1" source="-Q95M-S0IUvqRcSwskgD-21" target="-Q95M-S0IUvqRcSwskgD-27">
          <mxGeometry width="50" height="50" relative="1" as="geometry">
            <mxPoint x="590" y="620" as="sourcePoint" />
            <mxPoint x="640" y="570" as="targetPoint" />
          </mxGeometry>
        </mxCell>
        <mxCell id="-Q95M-S0IUvqRcSwskgD-46" value="" style="endArrow=none;html=1;rounded=0;entryX=0;entryY=0.361;entryDx=0;entryDy=0;exitX=1;exitY=0.5;exitDx=0;exitDy=0;entryPerimeter=0;" edge="1" parent="1" source="-Q95M-S0IUvqRcSwskgD-27" target="-Q95M-S0IUvqRcSwskgD-34">
          <mxGeometry width="50" height="50" relative="1" as="geometry">
            <mxPoint x="720" y="505" as="sourcePoint" />
            <mxPoint x="847" y="505" as="targetPoint" />
          </mxGeometry>
        </mxCell>
        <mxCell id="-Q95M-S0IUvqRcSwskgD-47" value="" style="endArrow=none;html=1;rounded=0;exitX=0.5;exitY=0;exitDx=0;exitDy=0;entryX=0.499;entryY=1.074;entryDx=0;entryDy=0;entryPerimeter=0;" edge="1" parent="1" source="-Q95M-S0IUvqRcSwskgD-27" target="-Q95M-S0IUvqRcSwskgD-32">
          <mxGeometry width="50" height="50" relative="1" as="geometry">
            <mxPoint x="710" y="520" as="sourcePoint" />
            <mxPoint x="760" y="470" as="targetPoint" />
          </mxGeometry>
        </mxCell>
        <mxCell id="-Q95M-S0IUvqRcSwskgD-48" value="M" style="text;html=1;strokeColor=none;fillColor=none;align=center;verticalAlign=middle;whiteSpace=wrap;rounded=0;" vertex="1" parent="1">
          <mxGeometry x="575" y="530" width="60" height="30" as="geometry" />
        </mxCell>
        <mxCell id="-Q95M-S0IUvqRcSwskgD-49" value="N" style="text;html=1;strokeColor=none;fillColor=none;align=center;verticalAlign=middle;whiteSpace=wrap;rounded=0;" vertex="1" parent="1">
          <mxGeometry x="690" y="460" width="60" height="30" as="geometry" />
        </mxCell>
        <mxCell id="-Q95M-S0IUvqRcSwskgD-50" value="P" style="text;html=1;strokeColor=none;fillColor=none;align=center;verticalAlign=middle;whiteSpace=wrap;rounded=0;" vertex="1" parent="1">
          <mxGeometry x="760" y="530" width="60" height="30" as="geometry" />
        </mxCell>
        <mxCell id="-Q95M-S0IUvqRcSwskgD-51" value="M:N:P" style="text;html=1;strokeColor=none;fillColor=none;align=center;verticalAlign=middle;whiteSpace=wrap;rounded=0;" vertex="1" parent="1">
          <mxGeometry x="640" y="520" width="60" height="30" as="geometry" />
        </mxCell>
        <mxCell id="-Q95M-S0IUvqRcSwskgD-52" value="" style="endArrow=none;html=1;rounded=0;entryX=0;entryY=1;entryDx=0;entryDy=0;exitX=1;exitY=0.5;exitDx=0;exitDy=0;" edge="1" parent="1" source="-Q95M-S0IUvqRcSwskgD-53" target="-Q95M-S0IUvqRcSwskgD-27">
          <mxGeometry width="50" height="50" relative="1" as="geometry">
            <mxPoint x="660" y="590" as="sourcePoint" />
            <mxPoint x="690" y="590" as="targetPoint" />
          </mxGeometry>
        </mxCell>
        <mxCell id="-Q95M-S0IUvqRcSwskgD-53" value="" style="ellipse;whiteSpace=wrap;html=1;aspect=fixed;" vertex="1" parent="1">
          <mxGeometry x="650" y="585" width="5" height="5" as="geometry" />
        </mxCell>
        <mxCell id="-Q95M-S0IUvqRcSwskgD-54" value="num_emissions" style="text;html=1;strokeColor=none;fillColor=none;align=center;verticalAlign=middle;whiteSpace=wrap;rounded=0;" vertex="1" parent="1">
          <mxGeometry x="580" y="580" width="60" height="30" as="geometry" />
        </mxCell>
        <mxCell id="-Q95M-S0IUvqRcSwskgD-55" value="" style="endArrow=none;html=1;rounded=0;entryX=0.41;entryY=0.904;entryDx=0;entryDy=0;entryPerimeter=0;exitX=1;exitY=0;exitDx=0;exitDy=0;" edge="1" parent="1" source="-Q95M-S0IUvqRcSwskgD-56" target="-Q95M-S0IUvqRcSwskgD-27">
          <mxGeometry width="50" height="50" relative="1" as="geometry">
            <mxPoint x="670" y="630" as="sourcePoint" />
            <mxPoint x="700" y="587.5" as="targetPoint" />
          </mxGeometry>
        </mxCell>
        <mxCell id="-Q95M-S0IUvqRcSwskgD-56" value="" style="ellipse;whiteSpace=wrap;html=1;aspect=fixed;" vertex="1" parent="1">
          <mxGeometry x="660" y="625" width="5" height="5" as="geometry" />
        </mxCell>
        <mxCell id="-Q95M-S0IUvqRcSwskgD-57" value="preu" style="text;html=1;strokeColor=none;fillColor=none;align=center;verticalAlign=middle;whiteSpace=wrap;rounded=0;" vertex="1" parent="1">
          <mxGeometry x="620" y="620" width="60" height="30" as="geometry" />
        </mxCell>
        <mxCell id="-Q95M-S0IUvqRcSwskgD-58" value="" style="endArrow=none;html=1;rounded=0;entryX=1;entryY=1;entryDx=0;entryDy=0;exitX=0;exitY=0;exitDx=0;exitDy=0;" edge="1" parent="1" source="-Q95M-S0IUvqRcSwskgD-59" target="-Q95M-S0IUvqRcSwskgD-27">
          <mxGeometry width="50" height="50" relative="1" as="geometry">
            <mxPoint x="740" y="600" as="sourcePoint" />
            <mxPoint x="750" y="590" as="targetPoint" />
          </mxGeometry>
        </mxCell>
        <mxCell id="-Q95M-S0IUvqRcSwskgD-59" value="" style="ellipse;whiteSpace=wrap;html=1;aspect=fixed;" vertex="1" parent="1">
          <mxGeometry x="745" y="600" width="5" height="5" as="geometry" />
        </mxCell>
        <mxCell id="-Q95M-S0IUvqRcSwskgD-61" value="data" style="text;html=1;strokeColor=none;fillColor=none;align=center;verticalAlign=middle;whiteSpace=wrap;rounded=0;" vertex="1" parent="1">
          <mxGeometry x="730" y="595" width="60" height="30" as="geometry" />
        </mxCell>
        <mxCell id="-Q95M-S0IUvqRcSwskgD-63" value="" style="endArrow=none;html=1;rounded=0;exitX=1.012;exitY=0.097;exitDx=0;exitDy=0;exitPerimeter=0;" edge="1" parent="1" source="-Q95M-S0IUvqRcSwskgD-33">
          <mxGeometry width="50" height="50" relative="1" as="geometry">
            <mxPoint x="1000" y="530" as="sourcePoint" />
            <mxPoint x="1040" y="529" as="targetPoint" />
          </mxGeometry>
        </mxCell>
        <mxCell id="-Q95M-S0IUvqRcSwskgD-64" value="" style="endArrow=none;html=1;rounded=0;entryX=0;entryY=0.104;entryDx=0;entryDy=0;entryPerimeter=0;" edge="1" parent="1" target="-Q95M-S0IUvqRcSwskgD-33">
          <mxGeometry width="50" height="50" relative="1" as="geometry">
            <mxPoint x="790" y="529" as="sourcePoint" />
            <mxPoint x="833" y="529.41" as="targetPoint" />
          </mxGeometry>
        </mxCell>
        <mxCell id="-Q95M-S0IUvqRcSwskgD-65" value="" style="endArrow=none;html=1;rounded=0;" edge="1" parent="1">
          <mxGeometry width="50" height="50" relative="1" as="geometry">
            <mxPoint x="1040" y="530" as="sourcePoint" />
            <mxPoint x="1040" y="440" as="targetPoint" />
          </mxGeometry>
        </mxCell>
        <mxCell id="-Q95M-S0IUvqRcSwskgD-66" value="" style="endArrow=none;html=1;rounded=0;" edge="1" parent="1">
          <mxGeometry width="50" height="50" relative="1" as="geometry">
            <mxPoint x="790" y="530" as="sourcePoint" />
            <mxPoint x="790" y="440" as="targetPoint" />
          </mxGeometry>
        </mxCell>
        <mxCell id="-Q95M-S0IUvqRcSwskgD-67" value="" style="endArrow=none;html=1;rounded=0;entryX=0;entryY=0.5;entryDx=0;entryDy=0;entryPerimeter=0;" edge="1" parent="1" target="-Q95M-S0IUvqRcSwskgD-69">
          <mxGeometry width="50" height="50" relative="1" as="geometry">
            <mxPoint x="790" y="440" as="sourcePoint" />
            <mxPoint x="880" y="440" as="targetPoint" />
          </mxGeometry>
        </mxCell>
        <mxCell id="-Q95M-S0IUvqRcSwskgD-68" value="" style="endArrow=none;html=1;rounded=0;exitX=1;exitY=0.5;exitDx=0;exitDy=0;" edge="1" parent="1" source="-Q95M-S0IUvqRcSwskgD-69">
          <mxGeometry width="50" height="50" relative="1" as="geometry">
            <mxPoint x="960" y="440" as="sourcePoint" />
            <mxPoint x="1040" y="440" as="targetPoint" />
          </mxGeometry>
        </mxCell>
        <mxCell id="-Q95M-S0IUvqRcSwskgD-69" value="spot_equivalent" style="rhombus;whiteSpace=wrap;html=1;" vertex="1" parent="1">
          <mxGeometry x="880" y="400" width="80" height="80" as="geometry" />
        </mxCell>
        <mxCell id="-Q95M-S0IUvqRcSwskgD-70" value="M:N" style="text;html=1;strokeColor=none;fillColor=none;align=center;verticalAlign=middle;whiteSpace=wrap;rounded=0;" vertex="1" parent="1">
          <mxGeometry x="890" y="370" width="60" height="30" as="geometry" />
        </mxCell>
        <mxCell id="-Q95M-S0IUvqRcSwskgD-71" value="(0,n)" style="text;html=1;strokeColor=none;fillColor=none;align=center;verticalAlign=middle;whiteSpace=wrap;rounded=0;" vertex="1" parent="1">
          <mxGeometry x="1030" y="470" width="60" height="30" as="geometry" />
        </mxCell>
        <mxCell id="-Q95M-S0IUvqRcSwskgD-72" value="(0,n)" style="text;html=1;strokeColor=none;fillColor=none;align=center;verticalAlign=middle;whiteSpace=wrap;rounded=0;" vertex="1" parent="1">
          <mxGeometry x="740" y="470" width="60" height="30" as="geometry" />
        </mxCell>
        <mxCell id="-Q95M-S0IUvqRcSwskgD-73" value="" style="endArrow=none;html=1;rounded=0;exitX=1.007;exitY=0.295;exitDx=0;exitDy=0;exitPerimeter=0;entryX=0;entryY=0.5;entryDx=0;entryDy=0;" edge="1" parent="1" source="-Q95M-S0IUvqRcSwskgD-34" target="-Q95M-S0IUvqRcSwskgD-74">
          <mxGeometry width="50" height="50" relative="1" as="geometry">
            <mxPoint x="1100" y="580" as="sourcePoint" />
            <mxPoint x="1180" y="560" as="targetPoint" />
          </mxGeometry>
        </mxCell>
        <mxCell id="-Q95M-S0IUvqRcSwskgD-74" value="tipus_producte_x_spot" style="rhombus;whiteSpace=wrap;html=1;" vertex="1" parent="1">
          <mxGeometry x="1200" y="520" width="160" height="80" as="geometry" />
        </mxCell>
        <mxCell id="-Q95M-S0IUvqRcSwskgD-75" value="" style="endArrow=none;html=1;rounded=0;exitX=1;exitY=0.5;exitDx=0;exitDy=0;entryX=0.002;entryY=0.343;entryDx=0;entryDy=0;entryPerimeter=0;" edge="1" parent="1" source="-Q95M-S0IUvqRcSwskgD-74" target="-Q95M-S0IUvqRcSwskgD-77">
          <mxGeometry width="50" height="50" relative="1" as="geometry">
            <mxPoint x="1380" y="555" as="sourcePoint" />
            <mxPoint x="1430" y="505" as="targetPoint" />
          </mxGeometry>
        </mxCell>
        <mxCell id="-Q95M-S0IUvqRcSwskgD-76" value="tipus_producte" style="swimlane;fontStyle=0;childLayout=stackLayout;horizontal=1;startSize=30;horizontalStack=0;resizeParent=1;resizeParentMax=0;resizeLast=0;collapsible=1;marginBottom=0;whiteSpace=wrap;html=1;" vertex="1" parent="1">
          <mxGeometry x="1480" y="520" width="140" height="90" as="geometry" />
        </mxCell>
        <mxCell id="-Q95M-S0IUvqRcSwskgD-77" value="&lt;u&gt;id_tipus_producte&lt;/u&gt;" style="text;strokeColor=none;fillColor=none;align=left;verticalAlign=middle;spacingLeft=4;spacingRight=4;overflow=hidden;points=[[0,0.5],[1,0.5]];portConstraint=eastwest;rotatable=0;whiteSpace=wrap;html=1;" vertex="1" parent="-Q95M-S0IUvqRcSwskgD-76">
          <mxGeometry y="30" width="140" height="30" as="geometry" />
        </mxCell>
        <mxCell id="-Q95M-S0IUvqRcSwskgD-78" value="tipus_producte" style="text;strokeColor=none;fillColor=none;align=left;verticalAlign=middle;spacingLeft=4;spacingRight=4;overflow=hidden;points=[[0,0.5],[1,0.5]];portConstraint=eastwest;rotatable=0;whiteSpace=wrap;html=1;" vertex="1" parent="-Q95M-S0IUvqRcSwskgD-76">
          <mxGeometry y="60" width="140" height="30" as="geometry" />
        </mxCell>
        <mxCell id="-Q95M-S0IUvqRcSwskgD-80" value="M:N" style="text;html=1;strokeColor=none;fillColor=none;align=center;verticalAlign=middle;whiteSpace=wrap;rounded=0;" vertex="1" parent="1">
          <mxGeometry x="1250" y="490" width="60" height="30" as="geometry" />
        </mxCell>
        <mxCell id="-Q95M-S0IUvqRcSwskgD-81" value="(1,n)&lt;br&gt;&lt;br&gt;surt a" style="text;html=1;strokeColor=none;fillColor=none;align=center;verticalAlign=middle;whiteSpace=wrap;rounded=0;" vertex="1" parent="1">
          <mxGeometry x="1090" y="545" width="60" height="30" as="geometry" />
        </mxCell>
        <mxCell id="-Q95M-S0IUvqRcSwskgD-82" value="(1,n)&lt;br&gt;&lt;br&gt;fa referència a" style="text;html=1;strokeColor=none;fillColor=none;align=center;verticalAlign=middle;whiteSpace=wrap;rounded=0;" vertex="1" parent="1">
          <mxGeometry x="1390" y="555" width="60" height="30" as="geometry" />
        </mxCell>
        <mxCell id="-Q95M-S0IUvqRcSwskgD-83" value="" style="endArrow=none;html=1;rounded=0;exitX=0.5;exitY=0;exitDx=0;exitDy=0;" edge="1" parent="1" source="-Q95M-S0IUvqRcSwskgD-76">
          <mxGeometry width="50" height="50" relative="1" as="geometry">
            <mxPoint x="1530" y="460" as="sourcePoint" />
            <mxPoint x="1550" y="200" as="targetPoint" />
          </mxGeometry>
        </mxCell>
        <mxCell id="-Q95M-S0IUvqRcSwskgD-84" value="tipus_producte_prohibit" style="rhombus;whiteSpace=wrap;html=1;" vertex="1" parent="1">
          <mxGeometry x="1200" y="160" width="160" height="80" as="geometry" />
        </mxCell>
        <mxCell id="-Q95M-S0IUvqRcSwskgD-85" value="" style="endArrow=none;html=1;rounded=0;exitX=1;exitY=0.5;exitDx=0;exitDy=0;" edge="1" parent="1" source="-Q95M-S0IUvqRcSwskgD-84">
          <mxGeometry width="50" height="50" relative="1" as="geometry">
            <mxPoint x="1410" y="210" as="sourcePoint" />
            <mxPoint x="1550" y="200" as="targetPoint" />
          </mxGeometry>
        </mxCell>
        <mxCell id="-Q95M-S0IUvqRcSwskgD-86" value="" style="endArrow=none;html=1;rounded=0;exitX=0.5;exitY=0;exitDx=0;exitDy=0;" edge="1" parent="1" source="-Q95M-S0IUvqRcSwskgD-28">
          <mxGeometry width="50" height="50" relative="1" as="geometry">
            <mxPoint x="680" y="250" as="sourcePoint" />
            <mxPoint x="710" y="200" as="targetPoint" />
          </mxGeometry>
        </mxCell>
        <mxCell id="-Q95M-S0IUvqRcSwskgD-87" value="" style="endArrow=none;html=1;rounded=0;entryX=0;entryY=0.5;entryDx=0;entryDy=0;" edge="1" parent="1" target="-Q95M-S0IUvqRcSwskgD-84">
          <mxGeometry width="50" height="50" relative="1" as="geometry">
            <mxPoint x="710" y="200" as="sourcePoint" />
            <mxPoint x="1090" y="180" as="targetPoint" />
          </mxGeometry>
        </mxCell>
        <mxCell id="-Q95M-S0IUvqRcSwskgD-88" value="(0,n)&lt;br&gt;&lt;br&gt;està prohibit" style="text;html=1;strokeColor=none;fillColor=none;align=center;verticalAlign=middle;whiteSpace=wrap;rounded=0;" vertex="1" parent="1">
          <mxGeometry x="860" y="185" width="60" height="30" as="geometry" />
        </mxCell>
        <mxCell id="-Q95M-S0IUvqRcSwskgD-89" value="(0,n)&lt;br&gt;&lt;br&gt;Té prohibits" style="text;html=1;strokeColor=none;fillColor=none;align=center;verticalAlign=middle;whiteSpace=wrap;rounded=0;" vertex="1" parent="1">
          <mxGeometry x="1440" y="185" width="60" height="30" as="geometry" />
        </mxCell>
        <mxCell id="-Q95M-S0IUvqRcSwskgD-90" value="M:N" style="text;html=1;strokeColor=none;fillColor=none;align=center;verticalAlign=middle;whiteSpace=wrap;rounded=0;" vertex="1" parent="1">
          <mxGeometry x="1250" y="130" width="60" height="30" as="geometry" />
        </mxCell>
        <mxCell id="-Q95M-S0IUvqRcSwskgD-91" value="" style="endArrow=none;html=1;rounded=0;entryX=0;entryY=1;entryDx=0;entryDy=0;exitX=1;exitY=0;exitDx=0;exitDy=0;" edge="1" parent="1" source="-Q95M-S0IUvqRcSwskgD-92" target="-Q95M-S0IUvqRcSwskgD-84">
          <mxGeometry width="50" height="50" relative="1" as="geometry">
            <mxPoint x="1210" y="270" as="sourcePoint" />
            <mxPoint x="1240" y="240" as="targetPoint" />
          </mxGeometry>
        </mxCell>
        <mxCell id="-Q95M-S0IUvqRcSwskgD-92" value="" style="ellipse;whiteSpace=wrap;html=1;aspect=fixed;" vertex="1" parent="1">
          <mxGeometry x="1200" y="270" width="5" height="5" as="geometry" />
        </mxCell>
        <mxCell id="-Q95M-S0IUvqRcSwskgD-93" value="grau_penalitzacio" style="text;html=1;strokeColor=none;fillColor=none;align=center;verticalAlign=middle;whiteSpace=wrap;rounded=0;" vertex="1" parent="1">
          <mxGeometry x="1120" y="270" width="60" height="30" as="geometry" />
        </mxCell>
        <mxCell id="-Q95M-S0IUvqRcSwskgD-94" value="E" style="rhombus;whiteSpace=wrap;html=1;" vertex="1" parent="1">
          <mxGeometry x="885" y="670" width="50" height="50" as="geometry" />
        </mxCell>
        <mxCell id="-Q95M-S0IUvqRcSwskgD-95" value="Empresa" style="swimlane;fontStyle=0;childLayout=stackLayout;horizontal=1;startSize=30;horizontalStack=0;resizeParent=1;resizeParentMax=0;resizeLast=0;collapsible=1;marginBottom=0;whiteSpace=wrap;html=1;" vertex="1" parent="1">
          <mxGeometry x="840" y="780" width="140" height="150" as="geometry" />
        </mxCell>
        <mxCell id="-Q95M-S0IUvqRcSwskgD-96" value="&lt;u&gt;cif&lt;/u&gt;" style="text;strokeColor=none;fillColor=none;align=left;verticalAlign=middle;spacingLeft=4;spacingRight=4;overflow=hidden;points=[[0,0.5],[1,0.5]];portConstraint=eastwest;rotatable=0;whiteSpace=wrap;html=1;" vertex="1" parent="-Q95M-S0IUvqRcSwskgD-95">
          <mxGeometry y="30" width="140" height="30" as="geometry" />
        </mxCell>
        <mxCell id="-Q95M-S0IUvqRcSwskgD-104" value="nom" style="text;strokeColor=none;fillColor=none;align=left;verticalAlign=middle;spacingLeft=4;spacingRight=4;overflow=hidden;points=[[0,0.5],[1,0.5]];portConstraint=eastwest;rotatable=0;whiteSpace=wrap;html=1;" vertex="1" parent="-Q95M-S0IUvqRcSwskgD-95">
          <mxGeometry y="60" width="140" height="30" as="geometry" />
        </mxCell>
        <mxCell id="-Q95M-S0IUvqRcSwskgD-98" value="adreca" style="text;strokeColor=none;fillColor=none;align=left;verticalAlign=middle;spacingLeft=4;spacingRight=4;overflow=hidden;points=[[0,0.5],[1,0.5]];portConstraint=eastwest;rotatable=0;whiteSpace=wrap;html=1;" vertex="1" parent="-Q95M-S0IUvqRcSwskgD-95">
          <mxGeometry y="90" width="140" height="30" as="geometry" />
        </mxCell>
        <mxCell id="-Q95M-S0IUvqRcSwskgD-105" value="telefon" style="text;strokeColor=none;fillColor=none;align=left;verticalAlign=middle;spacingLeft=4;spacingRight=4;overflow=hidden;points=[[0,0.5],[1,0.5]];portConstraint=eastwest;rotatable=0;whiteSpace=wrap;html=1;" vertex="1" parent="-Q95M-S0IUvqRcSwskgD-95">
          <mxGeometry y="120" width="140" height="30" as="geometry" />
        </mxCell>
        <mxCell id="-Q95M-S0IUvqRcSwskgD-99" value="" style="endArrow=none;html=1;rounded=0;exitX=0.5;exitY=0;exitDx=0;exitDy=0;entryX=0.508;entryY=0.99;entryDx=0;entryDy=0;entryPerimeter=0;" edge="1" parent="1" source="-Q95M-S0IUvqRcSwskgD-94" target="-Q95M-S0IUvqRcSwskgD-35">
          <mxGeometry width="50" height="50" relative="1" as="geometry">
            <mxPoint x="910" y="660" as="sourcePoint" />
            <mxPoint x="960" y="610" as="targetPoint" />
          </mxGeometry>
        </mxCell>
        <mxCell id="-Q95M-S0IUvqRcSwskgD-100" value="" style="endArrow=none;html=1;rounded=0;entryX=0.5;entryY=1;entryDx=0;entryDy=0;exitX=0.5;exitY=0;exitDx=0;exitDy=0;" edge="1" parent="1" source="-Q95M-S0IUvqRcSwskgD-95" target="-Q95M-S0IUvqRcSwskgD-94">
          <mxGeometry width="50" height="50" relative="1" as="geometry">
            <mxPoint x="940" y="750" as="sourcePoint" />
            <mxPoint x="990" y="700" as="targetPoint" />
          </mxGeometry>
        </mxCell>
        <mxCell id="-Q95M-S0IUvqRcSwskgD-101" value="(1,n)&amp;nbsp; &amp;nbsp; &amp;nbsp; &amp;nbsp; filma" style="text;html=1;strokeColor=none;fillColor=none;align=center;verticalAlign=middle;whiteSpace=wrap;rounded=0;" vertex="1" parent="1">
          <mxGeometry x="867.5" y="640" width="85" height="30" as="geometry" />
        </mxCell>
        <mxCell id="-Q95M-S0IUvqRcSwskgD-102" value="(1,1)&amp;nbsp; &amp;nbsp; &amp;nbsp; &amp;nbsp;es filmat" style="text;html=1;strokeColor=none;fillColor=none;align=center;verticalAlign=middle;whiteSpace=wrap;rounded=0;" vertex="1" parent="1">
          <mxGeometry x="847.5" y="730" width="132.5" height="30" as="geometry" />
        </mxCell>
        <mxCell id="-Q95M-S0IUvqRcSwskgD-103" value="1:N" style="text;html=1;strokeColor=none;fillColor=none;align=center;verticalAlign=middle;whiteSpace=wrap;rounded=0;" vertex="1" parent="1">
          <mxGeometry x="930" y="680" width="60" height="30" as="geometry" />
        </mxCell>
        <mxCell id="-Q95M-S0IUvqRcSwskgD-107" value="és" style="triangle;whiteSpace=wrap;html=1;rotation=90;" vertex="1" parent="1">
          <mxGeometry x="890" y="970" width="40" height="50" as="geometry" />
        </mxCell>
        <mxCell id="-Q95M-S0IUvqRcSwskgD-108" value="" style="endArrow=none;html=1;rounded=0;exitX=0;exitY=0.5;exitDx=0;exitDy=0;entryX=0.514;entryY=1.077;entryDx=0;entryDy=0;entryPerimeter=0;" edge="1" parent="1" source="-Q95M-S0IUvqRcSwskgD-107" target="-Q95M-S0IUvqRcSwskgD-105">
          <mxGeometry width="50" height="50" relative="1" as="geometry">
            <mxPoint x="970" y="990" as="sourcePoint" />
            <mxPoint x="1020" y="940" as="targetPoint" />
          </mxGeometry>
        </mxCell>
        <mxCell id="-Q95M-S0IUvqRcSwskgD-109" value="firma_comercial" style="swimlane;fontStyle=0;childLayout=stackLayout;horizontal=1;startSize=30;horizontalStack=0;resizeParent=1;resizeParentMax=0;resizeLast=0;collapsible=1;marginBottom=0;whiteSpace=wrap;html=1;" vertex="1" parent="1">
          <mxGeometry x="740" y="1040" width="140" height="60" as="geometry" />
        </mxCell>
        <mxCell id="-Q95M-S0IUvqRcSwskgD-113" value="agencia_publicitat" style="swimlane;fontStyle=0;childLayout=stackLayout;horizontal=1;startSize=30;horizontalStack=0;resizeParent=1;resizeParentMax=0;resizeLast=0;collapsible=1;marginBottom=0;whiteSpace=wrap;html=1;" vertex="1" parent="1">
          <mxGeometry x="940" y="1040" width="140" height="60" as="geometry" />
        </mxCell>
        <mxCell id="-Q95M-S0IUvqRcSwskgD-114" value="" style="endArrow=none;html=1;rounded=0;entryX=0.5;entryY=0;entryDx=0;entryDy=0;exitX=0.25;exitY=0;exitDx=0;exitDy=0;" edge="1" parent="1" source="-Q95M-S0IUvqRcSwskgD-113" target="-Q95M-S0IUvqRcSwskgD-107">
          <mxGeometry width="50" height="50" relative="1" as="geometry">
            <mxPoint x="970" y="1030" as="sourcePoint" />
            <mxPoint x="1020" y="980" as="targetPoint" />
          </mxGeometry>
        </mxCell>
        <mxCell id="-Q95M-S0IUvqRcSwskgD-115" value="" style="endArrow=none;html=1;rounded=0;entryX=0.5;entryY=1;entryDx=0;entryDy=0;exitX=0.75;exitY=0;exitDx=0;exitDy=0;" edge="1" parent="1" source="-Q95M-S0IUvqRcSwskgD-109" target="-Q95M-S0IUvqRcSwskgD-107">
          <mxGeometry width="50" height="50" relative="1" as="geometry">
            <mxPoint x="810" y="1030" as="sourcePoint" />
            <mxPoint x="860" y="980" as="targetPoint" />
          </mxGeometry>
        </mxCell>
        <mxCell id="-Q95M-S0IUvqRcSwskgD-116" value="(1,1)" style="text;html=1;strokeColor=none;fillColor=none;align=center;verticalAlign=middle;whiteSpace=wrap;rounded=0;" vertex="1" parent="1">
          <mxGeometry x="900" y="940" width="60" height="30" as="geometry" />
        </mxCell>
        <mxCell id="-Q95M-S0IUvqRcSwskgD-117" value="(0,1)" style="text;html=1;strokeColor=none;fillColor=none;align=center;verticalAlign=middle;whiteSpace=wrap;rounded=0;" vertex="1" parent="1">
          <mxGeometry x="940" y="1000" width="60" height="30" as="geometry" />
        </mxCell>
        <mxCell id="-Q95M-S0IUvqRcSwskgD-118" value="(0,1)" style="text;html=1;strokeColor=none;fillColor=none;align=center;verticalAlign=middle;whiteSpace=wrap;rounded=0;" vertex="1" parent="1">
          <mxGeometry x="820" y="1000" width="60" height="30" as="geometry" />
        </mxCell>
        <mxCell id="-Q95M-S0IUvqRcSwskgD-119" value="" style="endArrow=none;html=1;rounded=0;entryX=0.5;entryY=1;entryDx=0;entryDy=0;exitX=0.135;exitY=0.002;exitDx=0;exitDy=0;exitPerimeter=0;" edge="1" parent="1" source="-Q95M-S0IUvqRcSwskgD-109" target="-Q95M-S0IUvqRcSwskgD-120">
          <mxGeometry width="50" height="50" relative="1" as="geometry">
            <mxPoint x="720" y="1010" as="sourcePoint" />
            <mxPoint x="770" y="960" as="targetPoint" />
          </mxGeometry>
        </mxCell>
        <mxCell id="-Q95M-S0IUvqRcSwskgD-120" value="E" style="rhombus;whiteSpace=wrap;html=1;" vertex="1" parent="1">
          <mxGeometry x="735" y="730" width="50" height="50" as="geometry" />
        </mxCell>
        <mxCell id="-Q95M-S0IUvqRcSwskgD-121" value="" style="endArrow=none;html=1;rounded=0;exitX=0.5;exitY=0;exitDx=0;exitDy=0;entryX=0.116;entryY=1.019;entryDx=0;entryDy=0;entryPerimeter=0;" edge="1" parent="1" source="-Q95M-S0IUvqRcSwskgD-120" target="-Q95M-S0IUvqRcSwskgD-35">
          <mxGeometry width="50" height="50" relative="1" as="geometry">
            <mxPoint x="770" y="710" as="sourcePoint" />
            <mxPoint x="820" y="660" as="targetPoint" />
          </mxGeometry>
        </mxCell>
        <mxCell id="-Q95M-S0IUvqRcSwskgD-122" value="1:N" style="text;html=1;strokeColor=none;fillColor=none;align=center;verticalAlign=middle;whiteSpace=wrap;rounded=0;" vertex="1" parent="1">
          <mxGeometry x="685" y="740" width="60" height="30" as="geometry" />
        </mxCell>
        <mxCell id="-Q95M-S0IUvqRcSwskgD-123" value="(1,1)&lt;br&gt;es propietat" style="text;html=1;strokeColor=none;fillColor=none;align=center;verticalAlign=middle;whiteSpace=wrap;rounded=0;" vertex="1" parent="1">
          <mxGeometry x="700" y="840" width="60" height="30" as="geometry" />
        </mxCell>
        <mxCell id="-Q95M-S0IUvqRcSwskgD-124" value="(1,n)&lt;br&gt;té" style="text;html=1;strokeColor=none;fillColor=none;align=center;verticalAlign=middle;whiteSpace=wrap;rounded=0;" vertex="1" parent="1">
          <mxGeometry x="745" y="660" width="60" height="30" as="geometry" />
        </mxCell>
      </root>
    </mxGraphModel>
  </diagram>
</mxfile>
